{
	"info": {
		"_postman_id": "b59d53d9-9138-456e-bb1c-0431801539dd",
		"name": "HomeTask1 User",
		"schema": "https://schema.getpostman.com/json/collection/v2.1.0/collection.json"
	},
	"item": [
		{
			"name": "user Copy",
			"item": [
				{
					"name": "Create user",
					"event": [
						{
							"listen": "test",
							"script": {
								"exec": [
									"pm.test(\"Status code is 200\", function () {",
									"    pm.response.to.have.status(200);",
									"});",
									"",
									"pm.test(\"Body matches string\", function () {",
									"    pm.expect(pm.response.text()).to.include(\"unknown\");",
									"});",
									"",
									"pm.test(\"Successful POST request\", function () {",
									"    pm.expect(pm.response.code).to.be.oneOf([200, 201]);",
									"});"
								],
								"type": "text/javascript"
							}
						}
					],
					"request": {
						"method": "POST",
						"header": [
							{
								"key": "Content-Type",
								"value": "application/json"
							}
						],
						"body": {
							"mode": "raw",
							"raw": "{\n    \"id\": {{$randomInt}},\n    \"username\": \"{{username}}\",\n    \"firstName\": \"{{$randomFirstName}}\",\n    \"lastName\": \"{{$randomLastName}}\",\n    \"email\": \"{{email}}\",\n    \"password\": \"{{password}}\",\n    \"phone\": \"{{phoneNumber}}\",\n    \"userStatus\": {{$randomInt}}\n}",
							"options": {
								"raw": {
									"language": "json"
								}
							}
						},
						"url": {
							"raw": "{{baseUrl}}/user",
							"host": [
								"{{baseUrl}}"
							],
							"path": [
								"user"
							]
						},
						"description": "This can only be done by the logged in user."
					},
					"response": [
						{
							"name": "successful operation",
							"originalRequest": {
								"method": "POST",
								"header": [],
								"body": {
									"mode": "raw",
									"raw": "{\n    \"id\": {{$randomInt}},\n    \"username\": \"{{username}}\",\n    \"firstName\": \"{{$randomFirstName}}\",\n    \"lastName\": \"{{$randomLastName}}\",\n    \"email\": \"{{email}}\",\n    \"password\": \"{{password}}\",\n    \"phone\": \"{{phoneNumber}}\",\n    \"userStatus\": {{$randomInt}}\n}",
									"options": {
										"raw": {
											"language": "json"
										}
									}
								},
								"url": {
									"raw": "{{baseUrl}}/user",
									"host": [
										"{{baseUrl}}"
									],
									"path": [
										"user"
									]
								}
							},
							"status": "Internal Server Error",
							"code": 500,
							"_postman_previewlanguage": "text",
							"header": [
								{
									"key": "Content-Type",
									"value": "text/plain"
								}
							],
							"cookie": [],
							"body": ""
						}
					]
				},
				{
					"name": "Get user by user name",
					"event": [
						{
							"listen": "test",
							"script": {
								"exec": [
									"pm.test(\"Status code is 200\", function () {",
									"    pm.response.to.have.status(200);",
									"});",
									""
								],
								"type": "text/javascript"
							}
						}
					],
					"request": {
						"method": "GET",
						"header": [],
						"url": {
							"raw": "{{baseUrl}}/user/:{{username}}",
							"host": [
								"{{baseUrl}}"
							],
							"path": [
								"user",
								":{{username}}"
							],
							"variable": [
								{
									"key": "{{username}}",
									"value": "{{username}}"
								}
							]
						}
					},
					"response": [
						{
							"name": "successful operation",
							"originalRequest": {
								"method": "GET",
								"header": [],
								"url": {
									"raw": "{{baseUrl}}/user/:username",
									"host": [
										"{{baseUrl}}"
									],
									"path": [
										"user",
										":username"
									],
									"variable": [
										{
											"key": "username",
											"value": "{{username}}",
											"description": "(Required) The name that needs to be fetched. Use user1 for testing. "
										}
									]
								}
							},
							"status": "OK",
							"code": 200,
							"_postman_previewlanguage": "json",
							"header": [
								{
									"key": "Content-Type",
									"value": "application/json"
								}
							],
							"cookie": [],
							"body": "{\n \"id\": 71191154,\n \"username\": \"consectetur veniam aliqua\",\n \"firstName\": \"minim exercitation sit\",\n \"lastName\": \"esse ad\",\n \"email\": \"cupidatat eu\",\n \"password\": \"ma\",\n \"phone\": \"dolor laboris\",\n \"userStatus\": 41499355\n}"
						},
						{
							"name": "Invalid username supplied",
							"originalRequest": {
								"method": "GET",
								"header": [],
								"url": {
									"raw": "{{baseUrl}}/user/:username",
									"host": [
										"{{baseUrl}}"
									],
									"path": [
										"user",
										":username"
									],
									"variable": [
										{
											"key": "username",
											"value": "dolore veniam nostrud",
											"description": "(Required) The name that needs to be fetched. Use user1 for testing. "
										}
									]
								}
							},
							"status": "Bad Request",
							"code": 400,
							"_postman_previewlanguage": "text",
							"header": [
								{
									"key": "Content-Type",
									"value": "text/plain"
								}
							],
							"cookie": [],
							"body": ""
						},
						{
							"name": "User not found",
							"originalRequest": {
								"method": "GET",
								"header": [],
								"url": {
									"raw": "{{baseUrl}}/user/:username",
									"host": [
										"{{baseUrl}}"
									],
									"path": [
										"user",
										":username"
									],
									"variable": [
										{
											"key": "username",
											"value": "dolore veniam nostrud",
											"description": "(Required) The name that needs to be fetched. Use user1 for testing. "
										}
									]
								}
							},
							"status": "Not Found",
							"code": 404,
							"_postman_previewlanguage": "text",
							"header": [
								{
									"key": "Content-Type",
									"value": "text/plain"
								}
							],
							"cookie": [],
							"body": ""
						}
					]
				},
				{
					"name": "Updated user",
					"event": [
						{
							"listen": "test",
							"script": {
								"exec": [
									"pm.test(\"Status code is 200\", function () {",
									"    pm.response.to.have.status(200);",
									"});",
									"",
									"pm.test(\"Response body code = 200\", function () {   ",
									"    var responseCode = pm.response.json().code;",
									"    pm.expect(responseCode).to.eql(200);",
									"});"
								],
								"type": "text/javascript"
							}
						}
					],
					"request": {
						"method": "PUT",
						"header": [
							{
								"key": "Content-Type",
								"value": "application/json"
							}
						],
						"body": {
							"mode": "raw",
							"raw": "{\n    \"id\": {{$randomInt}},\n    \"username\": \"{{username}}\",\n    \"firstName\": \"{{firstName}}\",\n    \"lastName\": \"{{lastName}}\",\n    \"email\": \"{{email}}\",\n    \"password\": \"{{password}}\",\n    \"phone\": \"{{phoneNumber}}\",\n    \"userStatus\": {{$randomInt}}\n}",
							"options": {
								"raw": {
									"language": "json"
								}
							}
						},
						"url": {
							"raw": "{{baseUrl}}/user/:{{username}}",
							"host": [
								"{{baseUrl}}"
							],
							"path": [
								"user",
								":{{username}}"
							],
							"variable": [
								{
									"key": "{{username}}",
									"value": "{{username}}"
								}
							]
						},
						"description": "This can only be done by the logged in user."
					},
					"response": [
						{
							"name": "Invalid user supplied",
							"originalRequest": {
								"method": "PUT",
								"header": [],
								"body": {
									"mode": "raw",
									"raw": "{\n    \"id\": 71191154,\n    \"username\": \"consectetur veniam aliqua\",\n    \"firstName\": \"minim exercitation sit\",\n    \"lastName\": \"esse ad\",\n    \"email\": \"cupidatat eu\",\n    \"password\": \"ma\",\n    \"phone\": \"dolor laboris\",\n    \"userStatus\": 41499355\n}",
									"options": {
										"raw": {
											"language": "json"
										}
									}
								},
								"url": {
									"raw": "{{baseUrl}}/user/:username",
									"host": [
										"{{baseUrl}}"
									],
									"path": [
										"user",
										":username"
									],
									"variable": [
										{
											"key": "username",
											"value": "dolore veniam nostrud",
											"description": "(Required) name that need to be updated"
										}
									]
								}
							},
							"status": "Bad Request",
							"code": 400,
							"_postman_previewlanguage": "text",
							"header": [
								{
									"key": "Content-Type",
									"value": "text/plain"
								}
							],
							"cookie": [],
							"body": ""
						},
						{
							"name": "User not found",
							"originalRequest": {
								"method": "PUT",
								"header": [],
								"body": {
									"mode": "raw",
									"raw": "{\n    \"id\": 71191154,\n    \"username\": \"consectetur veniam aliqua\",\n    \"firstName\": \"minim exercitation sit\",\n    \"lastName\": \"esse ad\",\n    \"email\": \"cupidatat eu\",\n    \"password\": \"ma\",\n    \"phone\": \"dolor laboris\",\n    \"userStatus\": 41499355\n}",
									"options": {
										"raw": {
											"language": "json"
										}
									}
								},
								"url": {
									"raw": "{{baseUrl}}/user/:username",
									"host": [
										"{{baseUrl}}"
									],
									"path": [
										"user",
										":username"
									],
									"variable": [
										{
											"key": "username",
											"value": "{{username}}",
											"description": "(Required) name that need to be updated"
										}
									]
								}
							},
							"status": "Not Found",
							"code": 404,
							"_postman_previewlanguage": "text",
							"header": [
								{
									"key": "Content-Type",
									"value": "text/plain"
								}
							],
							"cookie": [],
							"body": ""
						}
					]
				},
				{
					"name": "Get user by user name after update",
					"event": [
						{
							"listen": "test",
							"script": {
								"exec": [
									"var responseObject = pm.response.json();",
									"var firstNameUpdated = responseObject.firstName;",
									"var lastNameUpdated = responseObject.lastName;",
									"",
									"console.log(firstNameUpdated);",
									"console.log(lastNameUpdated);",
									"",
									"pm.test(\"Updated first name\", function () {",
									"    pm.expect(firstNameUpdated).to.eql(\"Ivanka\");",
									"});",
									"",
									"pm.test(\"Updated last name\", function () {",
									"    pm.expect(lastNameUpdated).to.eql(\"Lozynska-Perun\");",
									"});"
								],
								"type": "text/javascript"
							}
						}
					],
					"request": {
						"method": "GET",
						"header": [],
						"url": {
							"raw": "{{baseUrl}}/user/:username",
							"host": [
								"{{baseUrl}}"
							],
							"path": [
								"user",
								":username"
							],
							"variable": [
								{
									"key": "username",
									"value": "{{username}}",
									"description": "(Required) The name that needs to be fetched. Use user1 for testing. "
								}
							]
						}
					},
					"response": [
						{
							"name": "successful operation",
							"originalRequest": {
								"method": "GET",
								"header": [],
								"url": {
									"raw": "{{baseUrl}}/user/:username",
									"host": [
										"{{baseUrl}}"
									],
									"path": [
										"user",
										":username"
									],
									"variable": [
										{
											"key": "username",
											"value": "ivanka_perun",
											"description": "(Required) The name that needs to be fetched. Use user1 for testing. "
										}
									]
								}
							},
							"status": "OK",
							"code": 200,
							"_postman_previewlanguage": "json",
							"header": [
								{
									"key": "Content-Type",
									"value": "application/json"
								}
							],
							"cookie": [],
							"body": "{\n \"id\": 71191154,\n \"username\": \"consectetur veniam aliqua\",\n \"firstName\": \"minim exercitation sit\",\n \"lastName\": \"esse ad\",\n \"email\": \"cupidatat eu\",\n \"password\": \"ma\",\n \"phone\": \"dolor laboris\",\n \"userStatus\": 41499355\n}"
						},
						{
							"name": "Invalid username supplied",
							"originalRequest": {
								"method": "GET",
								"header": [],
								"url": {
									"raw": "{{baseUrl}}/user/:username",
									"host": [
										"{{baseUrl}}"
									],
									"path": [
										"user",
										":username"
									],
									"variable": [
										{
											"key": "username",
											"value": "dolore veniam nostrud",
											"description": "(Required) The name that needs to be fetched. Use user1 for testing. "
										}
									]
								}
							},
							"status": "Bad Request",
							"code": 400,
							"_postman_previewlanguage": "text",
							"header": [
								{
									"key": "Content-Type",
									"value": "text/plain"
								}
							],
							"cookie": [],
							"body": ""
						},
						{
							"name": "User not found",
							"originalRequest": {
								"method": "GET",
								"header": [],
								"url": {
									"raw": "{{baseUrl}}/user/:username",
									"host": [
										"{{baseUrl}}"
									],
									"path": [
										"user",
										":username"
									],
									"variable": [
										{
											"key": "username",
											"value": "{{username}}",
											"description": "(Required) The name that needs to be fetched. Use user1 for testing. "
										}
									]
								}
							},
							"status": "Not Found",
							"code": 404,
							"_postman_previewlanguage": "text",
							"header": [
								{
									"key": "Content-Type",
									"value": "text/plain"
								}
							],
							"cookie": [],
							"body": ""
						}
					]
				},
				{
					"name": "Delete user",
					"event": [
						{
							"listen": "test",
							"script": {
								"exec": [
									"pm.test(\"Status code is 200\", function () {",
									"    pm.response.to.have.status(200);",
									"});",
									"",
									"var deleteObject = pm.response.json();",
									"",
									"var deletedUser = deleteObject.message;",
									"",
									"pm.test(\"Deleted user\", function () {",
									"    pm.expect(pm.response.text()).to.include(deletedUser);",
									"});",
									""
								],
								"type": "text/javascript"
							}
						}
					],
					"request": {
						"method": "DELETE",
						"header": [],
						"url": {
							"raw": "{{baseUrl}}/user/:username",
							"host": [
								"{{baseUrl}}"
							],
							"path": [
								"user",
								":username"
							],
							"variable": [
								{
									"key": "username",
									"value": "{{username}}"
								}
							]
						},
						"description": "This can only be done by the logged in user."
					},
					"response": [
						{
							"name": "Invalid username supplied",
							"originalRequest": {
								"method": "DELETE",
								"header": [],
								"url": {
									"raw": "{{baseUrl}}/user/:username",
									"host": [
										"{{baseUrl}}"
									],
									"path": [
										"user",
										":username"
									],
									"variable": [
										{
											"key": "username",
											"value": "dolore veniam nostrud",
											"description": "(Required) The name that needs to be deleted"
										}
									]
								}
							},
							"status": "Bad Request",
							"code": 400,
							"_postman_previewlanguage": "text",
							"header": [
								{
									"key": "Content-Type",
									"value": "text/plain"
								}
							],
							"cookie": [],
							"body": ""
						},
						{
							"name": "User not found",
							"originalRequest": {
								"method": "DELETE",
								"header": [],
								"url": {
									"raw": "{{baseUrl}}/user/:username",
									"host": [
										"{{baseUrl}}"
									],
									"path": [
										"user",
										":username"
									],
									"variable": [
										{
											"key": "username",
											"value": "{{username}}",
											"description": "(Required) The name that needs to be deleted"
										}
									]
								}
							},
							"status": "Not Found",
							"code": 404,
							"_postman_previewlanguage": "text",
							"header": [
								{
									"key": "Content-Type",
									"value": "text/plain"
								}
							],
							"cookie": [],
							"body": ""
						}
					]
				}
			]
		}
	],
	"event": [
		{
			"listen": "prerequest",
			"script": {
				"type": "text/javascript",
				"exec": [
					""
				]
			}
		},
		{
			"listen": "test",
			"script": {
				"type": "text/javascript",
				"exec": [
					""
				]
			}
		}
	],
	"variable": [
		{
			"key": "baseUrl",
			"value": "https://petstore.swagger.io/v2",
			"type": "string"
		},
		{
			"key": "username",
			"value": "ivanka_perun"
		},
		{
			"key": "email",
			"value": "ivkaloz2345678@gmail.com",
			"type": "string"
		},
		{
			"key": "firstName",
			"value": "Ivanka",
			"type": "string"
		},
		{
			"key": "lastName",
			"value": "Lozynska-Perun",
			"type": "string"
		},
		{
			"key": "password",
			"value": "testtest",
			"type": "string"
		},
		{
			"key": "phoneNumber",
			"value": "+380989898988",
			"type": "string"
		}
	]
}